verilog/decoder/inmp441.vcd
$date
	Fri Jun 19 07:43:54 2026
$end
$version
	Icarus Verilog
$end
$timescale
	1ps
$end
$scope module tb_inmp441 $end
$var wire 1 ! ws $end
$var wire 1 " sck $end
$var wire 1 # led_blue_n $end
$var wire 1 $ led_amber_n $end
$var reg 1 % clk $end
$var reg 24 & sample [23:0] $end
$var reg 1 ' sd $end
$var integer 32 ( i [31:0] $end
$scope module dut $end
$var wire 1 % clk $end
$var wire 1 ' sd $end
$var reg 6 ) bit_cnt [5:0] $end
$var reg 24 * data [23:0] $end
$var reg 1 $ led_amber_n $end
$var reg 1 # led_blue_n $end
$var reg 1 " sck $end
$var reg 2 + sck_cnt [1:0] $end
$var reg 1 ! ws $end
$upscope $end
$upscope $end
$enddefinitions $end
#0
$dumpvars
b0 +
b0 *
b0 )
bx (
0'
b101001011100001111110000 &
0%
x$
x#
0"
0!
$end
#41666
b1 +
1%
#83332
0%
#124998
b10 +
1%
#166664
0%
#208330
b11 +
1%
#249996
0%
#291662
b1 )
1"
b0 +
1%
#333328
0%
#374994
b1 +
1%
#416660
0%
#458326
b10 +
1%
#499992
0%
#541658
b11 +
1%
#583324
0%
#624990
0"
b0 +
1%
#666656
0%
#708322
b1 +
1%
#749988
0%
#791654
b10 +
1%
#833320
0%
#874986
b11 +
1%
#916652
0%
#958318
b10 )
1"
b0 +
1%
#999984
0%
#1000000
b10111 (
#1041650
b1 +
1%
#1083316
0%
#1124982
b10 +
1%
#1166648
0%
#1208314
b11 +
1%
#1249980
0%
#1291646
b10110 (
1'
0"
b0 +
1%
#1333312
0%
#1374978
b1 +
1%
#1416644
0%
#1458310
b10 +
1%
#1499976
0%
#1541642
b11 +
1%
#1583308
0%
#1624974
b1 *
b11 )
1"
b0 +
1%
#1666640
0%
#1708306
b1 +
1%
#1749972
0%
#1791638
b10 +
1%
#1833304
0%
#1874970
b11 +
1%
#1916636
0%
#1958302
b10101 (
0'
0"
b0 +
1%
#1999968
0%
#2041634
b1 +
1%
#2083300
0%
#2124966
b10 +
1%
#2166632
0%
#2208298
b11 +
1%
#2249964
0%
#2291630
b10 *
b100 )
1"
b0 +
1%
#2333296
0%
#2374962
b1 +
1%
#2416628
0%
#2458294
b10 +
1%
#2499960
0%
#2541626
b11 +
1%
#2583292
0%
#2624958
b10100 (
1'
0"
b0 +
1%
#2666624
0%
#2708290
b1 +
1%
#2749956
0%
#2791622
b10 +
1%
#2833288
0%
#2874954
b11 +
1%
#2916620
0%
#2958286
b101 *
b101 )
1"
b0 +
1%
#2999952
0%
#3041618
b1 +
1%
#3083284
0%
#3124950
b10 +
1%
#3166616
0%
#3208282
b11 +
1%
#3249948
0%
#3291614
b10011 (
0'
0"
b0 +
1%
#3333280
0%
#3374946
b1 +
1%
#3416612
0%
#3458278
b10 +
1%
#3499944
0%
#3541610
b11 +
1%
#3583276
0%
#3624942
b1010 *
b110 )
1"
b0 +
1%
#3666608
0%
#3708274
b1 +
1%
#3749940
0%
#3791606
b10 +
1%
#3833272
0%
#3874938
b11 +
1%
#3916604
0%
#3958270
b10010 (
0"
b0 +
1%
#3999936
0%
#4041602
b1 +
1%
#4083268
0%
#4124934
b10 +
1%
#4166600
0%
#4208266
b11 +
1%
#4249932
0%
#4291598
b10100 *
b111 )
1"
b0 +
1%
#4333264
0%
#4374930
b1 +
1%
#4416596
0%
#4458262
b10 +
1%
#4499928
0%
#4541594
b11 +
1%
#4583260
0%
#4624926
b10001 (
1'
0"
b0 +
1%
#4666592
0%
#4708258
b1 +
1%
#4749924
0%
#4791590
b10 +
1%
#4833256
0%
#4874922
b11 +
1%
#4916588
0%
#4958254
b101001 *
b1000 )
1"
b0 +
1%
#4999920
0%
#5041586
b1 +
1%
#5083252
0%
#5124918
b10 +
1%
#5166584
0%
#5208250
b11 +
1%
#5249916
0%
#5291582
b10000 (
0'
0"
b0 +
1%
#5333248
0%
#5374914
b1 +
1%
#5416580
0%
#5458246
b10 +
1%
#5499912
0%
#5541578
b11 +
1%
#5583244
0%
#5624910
b1010010 *
b1001 )
1"
b0 +
1%
#5666576
0%
#5708242
b1 +
1%
#5749908
0%
#5791574
b10 +
1%
#5833240
0%
#5874906
b11 +
1%
#5916572
0%
#5958238
b1111 (
1'
0"
b0 +
1%
#5999904
0%
#6041570
b1 +
1%
#6083236
0%
#6124902
b10 +
1%
#6166568
0%
#6208234
b11 +
1%
#6249900
0%
#6291566
b10100101 *
b1010 )
1"
b0 +
1%
#6333232
0%
#6374898
b1 +
1%
#6416564
0%
#6458230
b10 +
1%
#6499896
0%
#6541562
b11 +
1%
#6583228
0%
#6624894
b1110 (
0"
b0 +
1%
#6666560
0%
#6708226
b1 +
1%
#6749892
0%
#6791558
b10 +
1%
#6833224
0%
#6874890
b11 +
1%
#6916556
0%
#6958222
b101001011 *
b1011 )
1"
b0 +
1%
#6999888
0%
#7041554
b1 +
1%
#7083220
0%
#7124886
b10 +
1%
#7166552
0%
#7208218
b11 +
1%
#7249884
0%
#7291550
b1101 (
0"
b0 +
1%
#7333216
0%
#7374882
b1 +
1%
#7416548
0%
#7458214
b10 +
1%
#7499880
0%
#7541546
b11 +
1%
#7583212
0%
#7624878
b1010010111 *
b1100 )
1"
b0 +
1%
#7666544
0%
#7708210
b1 +
1%
#7749876
0%
#7791542
b10 +
1%
#7833208
0%
#7874874
b11 +
1%
#7916540
0%
#7958206
b1100 (
0'
0"
b0 +
1%
#7999872
0%
#8041538
b1 +
1%
#8083204
0%
#8124870
b10 +
1%
#8166536
0%
#8208202
b11 +
1%
#8249868
0%
#8291534
b10100101110 *
b1101 )
1"
b0 +
1%
#8333200
0%
#8374866
b1 +
1%
#8416532
0%
#8458198
b10 +
1%
#8499864
0%
#8541530
b11 +
1%
#8583196
0%
#8624862
b1011 (
0"
b0 +
1%
#8666528
0%
#8708194
b1 +
1%
#8749860
0%
#8791526
b10 +
1%
#8833192
0%
#8874858
b11 +
1%
#8916524
0%
#8958190
b101001011100 *
b1110 )
1"
b0 +
1%
#8999856
0%
#9041522
b1 +
1%
#9083188
0%
#9124854
b10 +
1%
#9166520
0%
#9208186
b11 +
1%
#9249852
0%
#9291518
b1010 (
0"
b0 +
1%
#9333184
0%
#9374850
b1 +
1%
#9416516
0%
#9458182
b10 +
1%
#9499848
0%
#9541514
b11 +
1%
#9583180
0%
#9624846
b1010010111000 *
b1111 )
1"
b0 +
1%
#9666512
0%
#9708178
b1 +
1%
#9749844
0%
#9791510
b10 +
1%
#9833176
0%
#9874842
b11 +
1%
#9916508
0%
#9958174
b1001 (
0"
b0 +
1%
#9999840
0%
#10041506
b1 +
1%
#10083172
0%
#10124838
b10 +
1%
#10166504
0%
#10208170
b11 +
1%
#10249836
0%
#10291502
b10100101110000 *
b10000 )
1"
b0 +
1%
#10333168
0%
#10374834
b1 +
1%
#10416500
0%
#10458166
b10 +
1%
#10499832
0%
#10541498
b11 +
1%
#10583164
0%
#10624830
b1000 (
1'
0"
b0 +
1%
#10666496
0%
#10708162
b1 +
1%
#10749828
0%
#10791494
b10 +
1%
#10833160
0%
#10874826
b11 +
1%
#10916492
0%
#10958158
b101001011100001 *
b10001 )
1"
b0 +
1%
#10999824
0%
#11041490
b1 +
1%
#11083156
0%
#11124822
b10 +
1%
#11166488
0%
#11208154
b11 +
1%
#11249820
0%
#11291486
b111 (
0"
b0 +
1%
#11333152
0%
#11374818
b1 +
1%
#11416484
0%
#11458150
b10 +
1%
#11499816
0%
#11541482
b11 +
1%
#11583148
0%
#11624814
b1010010111000011 *
b10010 )
1"
b0 +
1%
#11666480
0%
#11708146
b1 +
1%
#11749812
0%
#11791478
b10 +
1%
#11833144
0%
#11874810
b11 +
1%
#11916476
0%
#11958142
b110 (
0"
b0 +
1%
#11999808
0%
#12041474
b1 +
1%
#12083140
0%
#12124806
b10 +
1%
#12166472
0%
#12208138
b11 +
1%
#12249804
0%
#12291470
b10100101110000111 *
b10011 )
1"
b0 +
1%
#12333136
0%
#12374802
b1 +
1%
#12416468
0%
#12458134
b10 +
1%
#12499800
0%
#12541466
b11 +
1%
#12583132
0%
#12624798
b101 (
0"
b0 +
1%
#12666464
0%
#12708130
b1 +
1%
#12749796
0%
#12791462
b10 +
1%
#12833128
0%
#12874794
b11 +
1%
#12916460
0%
#12958126
b101001011100001111 *
b10100 )
1"
b0 +
1%
#12999792
0%
#13041458
b1 +
1%
#13083124
0%
#13124790
b10 +
1%
#13166456
0%
#13208122
b11 +
1%
#13249788
0%
#13291454
b100 (
0"
b0 +
1%
#13333120
0%
#13374786
b1 +
1%
#13416452
0%
#13458118
b10 +
1%
#13499784
0%
#13541450
b11 +
1%
#13583116
0%
#13624782
b1010010111000011111 *
b10101 )
1"
b0 +
1%
#13666448
0%
#13708114
b1 +
1%
#13749780
0%
#13791446
b10 +
1%
#13833112
0%
#13874778
b11 +
1%
#13916444
0%
#13958110
b11 (
0"
b0 +
1%
#13999776
0%
#14041442
b1 +
1%
#14083108
0%
#14124774
b10 +
1%
#14166440
0%
#14208106
b11 +
1%
#14249772
0%
#14291438
b10100101110000111111 *
b10110 )
1"
b0 +
1%
#14333104
0%
#14374770
b1 +
1%
#14416436
0%
#14458102
b10 +
1%
#14499768
0%
#14541434
b11 +
1%
#14583100
0%
#14624766
b10 (
0'
0"
b0 +
1%
#14666432
0%
#14708098
b1 +
1%
#14749764
0%
#14791430
b10 +
1%
#14833096
0%
#14874762
b11 +
1%
#14916428
0%
#14958094
b101001011100001111110 *
b10111 )
1"
b0 +
1%
#14999760
0%
#15041426
b1 +
1%
#15083092
0%
#15124758
b10 +
1%
#15166424
0%
#15208090
b11 +
1%
#15249756
0%
#15291422
b1 (
0"
b0 +
1%
#15333088
0%
#15374754
b1 +
1%
#15416420
0%
#15458086
b10 +
1%
#15499752
0%
#15541418
b11 +
1%
#15583084
0%
#15624750
b1010010111000011111100 *
b11000 )
1"
b0 +
1%
#15666416
0%
#15708082
b1 +
1%
#15749748
0%
#15791414
b10 +
1%
#15833080
0%
#15874746
b11 +
1%
#15916412
0%
#15958078
b0 (
0"
b0 +
1%
#15999744
0%
#16041410
b1 +
1%
#16083076
0%
#16124742
b10 +
1%
#16166408
0%
#16208074
b11 +
1%
#16249740
0%
#16291406
b10100101110000111111000 *
b11001 )
1"
b0 +
1%
#16333072
0%
#16374738
b1 +
1%
#16416404
0%
#16458070
b10 +
1%
#16499736
0%
#16541402
b11 +
1%
#16583068
0%
#16624734
b11111111111111111111111111111111 (
0"
b0 +
1%
#16666400
0%
#16708066
b1 +
1%
#16749732
0%
#16791398
b10 +
1%
#16833064
0%
#16874730
b11 +
1%
#16916396
0%
#16958062
b11010 )
1"
b0 +
1%
#16999728
0%
#17041394
b1 +
1%
#17083060
0%
#17124726
b10 +
1%
#17166392
0%
#17208058
b11 +
1%
#17249724
0%
#17291390
0"
b0 +
1%
#17333056
0%
#17374722
b1 +
1%
#17416388
0%
#17458054
b10 +
1%
#17499720
0%
#17541386
b11 +
1%
#17583052
0%
#17624718
b11011 )
1"
b0 +
1%
#17666384
0%
#17708050
b1 +
1%
#17749716
0%
#17791382
b10 +
1%
#17833048
0%
#17874714
b11 +
1%
#17916380
0%
#17958046
0"
b0 +
1%
#17999712
0%
#18041378
b1 +
1%
#18083044
0%
#18124710
b10 +
1%
#18166376
0%
#18208042
b11 +
1%
#18249708
0%
#18291374
b11100 )
1"
b0 +
1%
#18333040
0%
#18374706
b1 +
1%
#18416372
0%
#18458038
b10 +
1%
#18499704
0%
#18541370
b11 +
1%
#18583036
0%
#18624702
0"
b0 +
1%
#18666368
0%
#18708034
b1 +
1%
#18749700
0%
#18791366
b10 +
1%
#18833032
0%
#18874698
b11 +
1%
#18916364
0%
#18958030
b11101 )
1"
b0 +
1%
#18999696
0%
#19041362
b1 +
1%
#19083028
0%
#19124694
b10 +
1%
#19166360
0%
#19208026
b11 +
1%
#19249692
0%
#19291358
0"
b0 +
1%
#19333024
0%
#19374690
b1 +
1%
#19416356
0%
#19458022
b10 +
1%
#19499688
0%
#19541354
b11 +
1%
#19583020
0%
#19624686
b11110 )
1"
b0 +
1%
#19666352
0%
#19708018
b1 +
1%
#19749684
0%
#19791350
b10 +
1%
#19833016
0%
#19874682
b11 +
1%
#19916348
0%
#19958014
0"
b0 +
1%
#19999680
0%
#20041346
b1 +
1%
#20083012
0%
#20124678
b10 +
1%
#20166344
0%
#20208010
b11 +
1%
#20249676
0%
#20291342
b11111 )
1"
b0 +
1%
#20333008
0%
#20374674
b1 +
1%
#20416340
0%
#20458006
b10 +
1%
#20499672
0%
#20541338
b11 +
1%
#20583004
0%
#20624670
0"
b0 +
1%
#20666336
0%
#20708002
b1 +
1%
#20749668
0%
#20791334
b10 +
1%
#20833000
0%
#20874666
b11 +
1%
#20916332
0%
#20957998
b100000 )
1!
1"
b0 +
1%
#20999664
0%
#21041330
b1 +
1%
#21082996
0%
#21124662
b10 +
1%
#21166328
0%
#21207994
b11 +
1%
#21249660
0%
#21291326
0"
b0 +
1%
#21332992
0%
#21374658
b1 +
1%
#21416324
0%
#21457990
b10 +
1%
#21499656
0%
#21541322
b11 +
1%
#21582988
0%
#21624654
b100001 )
1"
b0 +
1%
#21666320
0%
#21707986
b1 +
1%
#21749652
0%
#21791318
b10 +
1%
#21832984
0%
#21874650
b11 +
1%
#21916316
0%
#21957982
0"
b0 +
1%
#21999648
0%
#22041314
b1 +
1%
#22082980
0%
#22124646
b10 +
1%
#22166312
0%
#22207978
b11 +
1%
#22249644
0%
#22291310
b100010 )
1"
b0 +
1%
#22332976
0%
#22374642
b1 +
1%
#22416308
0%
#22457974
b10 +
1%
#22499640
0%
#22541306
b11 +
1%
#22582972
0%
#22624638
0"
b0 +
1%
#22666304
0%
#22707970
b1 +
1%
#22749636
0%
#22791302
b10 +
1%
#22832968
0%
#22874634
b11 +
1%
#22916300
0%
#22957966
b100011 )
1"
b0 +
1%
#22999632
0%
#23041298
b1 +
1%
#23082964
0%
#23124630
b10 +
1%
#23166296
0%
#23207962
b11 +
1%
#23249628
0%
#23291294
0"
b0 +
1%
#23332960
0%
#23374626
b1 +
1%
#23416292
0%
#23457958
b10 +
1%
#23499624
0%
#23541290
b11 +
1%
#23582956
0%
#23624622
b100100 )
1"
b0 +
1%
#23666288
0%
#23707954
b1 +
1%
#23749620
0%
#23791286
b10 +
1%
#23832952
0%
#23874618
b11 +
1%
#23916284
0%
#23957950
0"
b0 +
1%
#23999616
0%
#24041282
b1 +
1%
#24082948
0%
#24124614
b10 +
1%
#24166280
0%
#24207946
b11 +
1%
#24249612
0%
#24291278
b100101 )
1"
b0 +
1%
#24332944
0%
#24374610
b1 +
1%
#24416276
0%
#24457942
b10 +
1%
#24499608
0%
#24541274
b11 +
1%
#24582940
0%
#24624606
0"
b0 +
1%
#24666272
0%
#24707938
b1 +
1%
#24749604
0%
#24791270
b10 +
1%
#24832936
0%
#24874602
b11 +
1%
#24916268
0%
#24957934
b100110 )
1"
b0 +
1%
#24999600
0%
#25041266
b1 +
1%
#25082932
0%
#25124598
b10 +
1%
#25166264
0%
#25207930
b11 +
1%
#25249596
0%
#25291262
0"
b0 +
1%
#25332928
0%
#25374594
b1 +
1%
#25416260
0%
#25457926
b10 +
1%
#25499592
0%
#25541258
b11 +
1%
#25582924
0%
#25624590
b100111 )
1"
b0 +
1%
#25666256
0%
#25707922
b1 +
1%
#25749588
0%
#25791254
b10 +
1%
#25832920
0%
#25874586
b11 +
1%
#25916252
0%
#25957918
0"
b0 +
1%
#25999584
0%
#26041250
b1 +
1%
#26082916
0%
#26124582
b10 +
1%
#26166248
0%
#26207914
b11 +
1%
#26249580
0%
#26291246
b101000 )
1"
b0 +
1%
#26332912
0%
#26374578
b1 +
1%
#26416244
0%
#26457910
b10 +
1%
#26499576
0%
#26541242
b11 +
1%
#26582908
0%
#26624574
0"
b0 +
1%
#26666240
0%
#26707906
b1 +
1%
#26749572
0%
#26791238
b10 +
1%
#26832904
0%
#26874570
b11 +
1%
#26916236
0%
#26957902
b101001 )
1"
b0 +
1%
#26999568
0%
#27041234
b1 +
1%
#27082900
0%
#27124566
b10 +
1%
#27166232
0%
#27207898
b11 +
1%
#27249564
0%
#27291230
0"
b0 +
1%
#27332896
0%
#27374562
b1 +
1%
#27416228
0%
#27457894
b10 +
1%
#27499560
0%
#27541226
b11 +
1%
#27582892
0%
#27624558
b101010 )
1"
b0 +
1%
#27666224
0%
#27707890
b1 +
1%
#27749556
0%
#27791222
b10 +
1%
#27832888
0%
#27874554
b11 +
1%
#27916220
0%
#27957886
0"
b0 +
1%
#27999552
0%
#28041218
b1 +
1%
#28082884
0%
#28124550
b10 +
1%
#28166216
0%
#28207882
b11 +
1%
#28249548
0%
#28291214
b101011 )
1"
b0 +
1%
#28332880
0%
#28374546
b1 +
1%
#28416212
0%
#28457878
b10 +
1%
#28499544
0%
#28541210
b11 +
1%
#28582876
0%
#28624542
0"
b0 +
1%
#28666208
0%
#28707874
b1 +
1%
#28749540
0%
#28791206
b10 +
1%
#28832872
0%
#28874538
b11 +
1%
#28916204
0%
#28957870
b101100 )
1"
b0 +
1%
#28999536
0%
#29041202
b1 +
1%
#29082868
0%
#29124534
b10 +
1%
#29166200
0%
#29207866
b11 +
1%
#29249532
0%
#29291198
0"
b0 +
1%
#29332864
0%
#29374530
b1 +
1%
#29416196
0%
#29457862
b10 +
1%
#29499528
0%
#29541194
b11 +
1%
#29582860
0%
#29624526
b101101 )
1"
b0 +
1%
#29666192
0%
#29707858
b1 +
1%
#29749524
0%
#29791190
b10 +
1%
#29832856
0%
#29874522
b11 +
1%
#29916188
0%
#29957854
0"
b0 +
1%
#29999520
0%
#30041186
b1 +
1%
#30082852
0%
#30124518
b10 +
1%
#30166184
0%
#30207850
b11 +
1%
#30249516
0%
#30291182
b101110 )
1"
b0 +
1%
#30332848
0%
#30374514
b1 +
1%
#30416180
0%
#30457846
b10 +
1%
#30499512
0%
#30541178
b11 +
1%
#30582844
0%
#30624510
0"
b0 +
1%
#30666176
0%
#30707842
b1 +
1%
#30749508
0%
#30791174
b10 +
1%
#30832840
0%
#30874506
b11 +
1%
#30916172
0%
#30957838
b101111 )
1"
b0 +
1%
#30999504
0%
#31041170
b1 +
1%
#31082836
0%
#31124502
b10 +
1%
#31166168
0%
#31207834
b11 +
1%
#31249500
0%
#31291166
0"
b0 +
1%
#31332832
0%
#31374498
b1 +
1%
#31416164
0%
#31457830
b10 +
1%
#31499496
0%
#31541162
b11 +
1%
#31582828
0%
#31624494
b110000 )
1"
b0 +
1%
#31666160
0%
#31707826
b1 +
1%
#31749492
0%
#31791158
b10 +
1%
#31832824
0%
#31874490
b11 +
1%
#31916156
0%
#31957822
0"
b0 +
1%
#31999488
0%
#32041154
b1 +
1%
#32082820
0%
#32124486
b10 +
1%
#32166152
0%
#32207818
b11 +
1%
#32249484
0%
#32291150
b110001 )
1"
b0 +
1%
#32332816
0%
#32374482
b1 +
1%
#32416148
0%
#32457814
b10 +
1%
#32499480
0%
#32541146
b11 +
1%
#32582812
0%
#32624478
0"
b0 +
1%
#32666144
0%
#32707810
b1 +
1%
#32749476
0%
#32791142
b10 +
1%
#32832808
0%
#32874474
b11 +
1%
#32916140
0%
#32957806
b110010 )
1"
b0 +
1%
#32999472
0%
#33041138
b1 +
1%
#33082804
0%
#33124470
b10 +
1%
#33166136
0%
#33207802
b11 +
1%
#33249468
0%
#33291134
0"
b0 +
1%
#33332800
0%
#33374466
b1 +
1%
#33416132
0%
#33457798
b10 +
1%
#33499464
0%
#33541130
b11 +
1%
#33582796
0%
#33624462
b110011 )
1"
b0 +
1%
#33666128
0%
#33707794
b1 +
1%
#33749460
0%
#33791126
b10 +
1%
#33832792
0%
#33874458
b11 +
1%
#33916124
0%
#33957790
0"
b0 +
1%
#33999456
0%
#34041122
b1 +
1%
#34082788
0%
#34124454
b10 +
1%
#34166120
0%
#34207786
b11 +
1%
#34249452
0%
#34291118
b110100 )
1"
b0 +
1%
#34332784
0%
#34374450
b1 +
1%
#34416116
0%
#34457782
b10 +
1%
#34499448
0%
#34541114
b11 +
1%
#34582780
0%
#34624446
0"
b0 +
1%
#34666112
0%
#34707778
b1 +
1%
#34749444
0%
#34791110
b10 +
1%
#34832776
0%
#34874442
b11 +
1%
#34916108
0%
#34957774
b110101 )
1"
b0 +
1%
#34999440
0%
#35041106
b1 +
1%
#35082772
0%
#35124438
b10 +
1%
#35166104
0%
#35207770
b11 +
1%
#35249436
0%
#35291102
0"
b0 +
1%
#35332768
0%
#35374434
b1 +
1%
#35416100
0%
#35457766
b10 +
1%
#35499432
0%
#35541098
b11 +
1%
#35582764
0%
#35624430
b110110 )
1"
b0 +
1%
#35666096
0%
#35707762
b1 +
1%
#35749428
0%
#35791094
b10 +
1%
#35832760
0%
#35874426
b11 +
1%
#35916092
0%
#35957758
0"
b0 +
1%
#35999424
0%
#36041090
b1 +
1%
#36082756
0%
#36124422
b10 +
1%
#36166088
0%
#36207754
b11 +
1%
#36249420
0%
#36291086
b110111 )
1"
b0 +
1%
#36332752
0%
#36374418
b1 +
1%
#36416084
0%
#36457750
b10 +
1%
#36499416
0%
#36541082
b11 +
1%
#36582748
0%
#36624414
0"
b0 +
1%
#36666080
0%
#36707746
b1 +
1%
#36749412
0%
#36791078
b10 +
1%
#36832744
0%
#36874410
b11 +
1%
#36916076
0%
#36957742
b111000 )
1"
b0 +
1%
#36999408
0%
#37041074
b1 +
1%
#37082740
0%
#37124406
b10 +
1%
#37166072
0%
#37207738
b11 +
1%
#37249404
0%
#37291070
0"
b0 +
1%
#37332736
0%
#37374402
b1 +
1%
#37416068
0%
#37457734
b10 +
1%
#37499400
0%
#37541066
b11 +
1%
#37582732
0%
#37624398
b111001 )
1"
b0 +
1%
#37666064
0%
#37707730
b1 +
1%
#37749396
0%
#37791062
b10 +
1%
#37832728
0%
#37874394
b11 +
1%
#37916060
0%
#37957726
0"
b0 +
1%
#37999392
0%
#38041058
b1 +
1%
#38082724
0%
#38124390
b10 +
1%
#38166056
0%
#38207722
b11 +
1%
#38249388
0%
#38291054
b111010 )
1"
b0 +
1%
#38332720
0%
#38374386
b1 +
1%
#38416052
0%
#38457718
b10 +
1%
#38499384
0%
#38541050
b11 +
1%
#38582716
0%
#38624382
0"
b0 +
1%
#38666048
0%
#38707714
b1 +
1%
#38749380
0%
#38791046
b10 +
1%
#38832712
0%
#38874378
b11 +
1%
#38916044
0%
#38957710
b111011 )
1"
b0 +
1%
#38999376
0%
#39041042
b1 +
1%
#39082708
0%
#39124374
b10 +
1%
#39166040
0%
#39207706
b11 +
1%
#39249372
0%
#39291038
0"
b0 +
1%
#39332704
0%
#39374370
b1 +
1%
#39416036
0%
#39457702
b10 +
1%
#39499368
0%
#39541034
b11 +
1%
#39582700
0%
#39624366
b111100 )
1"
b0 +
1%
#39666032
0%
#39707698
b1 +
1%
#39749364
0%
#39791030
b10 +
1%
#39832696
0%
#39874362
b11 +
1%
#39916028
0%
#39957694
0"
b0 +
1%
#39999360
0%
#40041026
b1 +
1%
#40082692
0%
#40124358
b10 +
1%
#40166024
0%
#40207690
b11 +
1%
#40249356
0%
#40291022
b111101 )
1"
b0 +
1%
#40332688
0%
#40374354
b1 +
1%
#40416020
0%
#40457686
b10 +
1%
#40499352
0%
#40541018
b11 +
1%
#40582684
0%
#40624350
0"
b0 +
1%
#40666016
0%
#40707682
b1 +
1%
#40749348
0%
#40791014
b10 +
1%
#40832680
0%
#40874346
b11 +
1%
#40916012
0%
#40957678
b111110 )
1"
b0 +
1%
#40999344
0%
#41041010
b1 +
1%
#41082676
0%
#41124342
b10 +
1%
#41166008
0%
#41207674
b11 +
1%
#41249340
0%
#41291006
0"
b0 +
1%
#41332672
0%
#41374338
b1 +
1%
#41416004
0%
#41457670
b10 +
1%
#41499336
0%
#41541002
b11 +
1%
#41582668
0%
#41624334
b111111 )
1"
b0 +
1%
#41666000
0%
#41707666
b1 +
1%
#41749332
0%
#41790998
b10 +
1%
#41832664
0%
#41874330
b11 +
1%
#41915996
0%
#41957662
0"
b0 +
1%
#41999328
0%
#42040994
b1 +
1%
#42082660
0%
#42124326
b10 +
1%
#42165992
0%
#42207658
b11 +
1%
#42249324
0%
#42290990
b0 )
0!
1"
b0 +
1%
#42332656
0%
#42374322
b1 +
1%
#42415988
0%
#42457654
b10 +
1%
#42499320
0%
#42540986
b11 +
1%
#42582652
0%
#42624318
0"
b0 +
1%
#42665984
0%
#42707650
b1 +
1%
#42749316
0%
#42790982
b10 +
1%
#42832648
0%
#42874314
b11 +
1%
#42915980
0%
#42957646
b1 )
1"
b0 +
1%
#42999312
0%
#43040978
b1 +
1%
#43082644
0%
#43124310
b10 +
1%
#43165976
0%
#43207642
b11 +
1%
#43249308
0%
#43290974
0"
b0 +
1%
#43332640
0%
#43374306
b1 +
1%
#43415972
0%
#43457638
b10 +
1%
#43499304
0%
#43540970
b11 +
1%
#43582636
0%
#43624302
b101001011100001111110000 *
b10 )
1"
b0 +
1%
#43665968
0%
#43707634
b1 +
1%
#43749300
0%
#43790966
b10 +
1%
#43832632
0%
#43874298
b11 +
1%
#43915964
0%
#43957630
0"
b0 +
1%
#43999296
0%
#44040962
b1 +
1%
#44082628
0%
#44124294
b10 +
1%
#44165960
0%
#44207626
b11 +
1%
#44249292
0%
#44290958
b10010111000011111100000 *
b11 )
1"
b0 +
1%
#44332624
0%
#44374290
b1 +
1%
#44415956
0%
#44457622
b10 +
1%
#44499288
0%
#44540954
b11 +
1%
#44582620
0%
#44624286
0"
b0 +
1%
#44665952
0%
#44707618
b1 +
1%
#44749284
0%
#44790950
b10 +
1%
#44832616
0%
#44874282
b11 +
1%
#44915948
0%
#44957614
b100101110000111111000000 *
b100 )
1"
b0 +
1%
#44999280
0%
#45040946
b1 +
1%
#45082612
0%
#45124278
b10 +
1%
#45165944
0%
#45207610
b11 +
1%
#45249276
0%
#45290942
0"
b0 +
1%
#45332608
0%
#45374274
b1 +
1%
#45415940
0%
#45457606
b10 +
1%
#45499272
0%
#45540938
b11 +
1%
#45582604
0%
#45624270
b1011100001111110000000 *
b101 )
1"
b0 +
1%
#45665936
0%
#45707602
b1 +
1%
#45749268
0%
#45790934
b10 +
1%
#45832600
0%
#45874266
b11 +
1%
#45915932
0%
#45957598
0"
b0 +
1%
#45999264
0%
#46040930
b1 +
1%
#46082596
0%
#46124262
b10 +
1%
#46165928
0%
#46207594
b11 +
1%
#46249260
0%
#46290926
b10111000011111100000000 *
b110 )
1"
b0 +
1%
#46332592
0%
#46374258
b1 +
1%
#46415924
0%
#46457590
b10 +
1%
#46499256
0%
#46540922
b11 +
1%
#46582588
0%
#46624254
0"
b0 +
1%
#46665920
0%
#46707586
b1 +
1%
#46749252
0%
#46790918
b10 +
1%
#46832584
0%
#46874250
b11 +
1%
#46915916
0%
#46957582
b101110000111111000000000 *
b111 )
1"
b0 +
1%
#46999248
0%
#47040914
b1 +
1%
#47082580
0%
#47124246
b10 +
1%
#47165912
0%
#47207578
b11 +
1%
#47249244
0%
#47290910
0"
b0 +
1%
#47332576
0%
#47374242
b1 +
1%
#47415908
0%
#47457574
b10 +
1%
#47499240
0%
#47540906
b11 +
1%
#47582572
0%
#47624238
b11100001111110000000000 *
b1000 )
1"
b0 +
1%
#47665904
0%
#47707570
b1 +
1%
#47749236
0%
#47790902
b10 +
1%
#47832568
0%
#47874234
b11 +
1%
#47915900
0%
#47957566
0"
b0 +
1%
#47999232
0%
#48040898
b1 +
1%
#48082564
0%
#48124230
b10 +
1%
#48165896
0%
#48207562
b11 +
1%
#48249228
0%
#48290894
b111000011111100000000000 *
b1001 )
1"
b0 +
1%
#48332560
0%
#48374226
b1 +
1%
#48415892
0%
#48457558
b10 +
1%
#48499224
0%
#48540890
b11 +
1%
#48582556
0%
#48624222
0"
b0 +
1%
#48665888
0%
#48707554
b1 +
1%
#48749220
0%
#48790886
b10 +
1%
#48832552
0%
#48874218
b11 +
1%
#48915884
0%
#48957550
b110000111111000000000000 *
b1010 )
1"
b0 +
1%
#48999216
0%
#49040882
b1 +
1%
#49082548
0%
#49124214
b10 +
1%
#49165880
0%
#49207546
b11 +
1%
#49249212
0%
#49290878
0"
b0 +
1%
#49332544
0%
#49374210
b1 +
1%
#49415876
0%
#49457542
b10 +
1%
#49499208
0%
#49540874
b11 +
1%
#49582540
0%
#49624206
b100001111110000000000000 *
b1011 )
1"
b0 +
1%
#49665872
0%
#49707538
b1 +
1%
#49749204
0%
#49790870
b10 +
1%
#49832536
0%
#49874202
b11 +
1%
#49915868
0%
#49957534
0"
b0 +
1%
#49999200
0%
#50040866
b1 +
1%
#50082532
0%
#50124198
b10 +
1%
#50165864
0%
#50207530
b11 +
1%
#50249196
0%
#50290862
b11111100000000000000 *
b1100 )
1"
b0 +
1%
#50332528
0%
#50374194
b1 +
1%
#50415860
0%
#50457526
b10 +
1%
#50499192
0%
#50540858
b11 +
1%
#50582524
0%
#50624190
0"
b0 +
1%
#50665856
0%
#50707522
b1 +
1%
#50749188
0%
#50790854
b10 +
1%
#50832520
0%
#50874186
b11 +
1%
#50915852
0%
#50957518
b111111000000000000000 *
b1101 )
1"
b0 +
1%
#50999184
0%
#51040850
b1 +
1%
#51082516
0%
#51124182
b10 +
1%
#51165848
0%
#51207514
b11 +
1%
#51249180
0%
#51290846
0"
b0 +
1%
#51332512
0%
#51374178
b1 +
1%
#51415844
0%
#51457510
b10 +
1%
#51499176
0%
#51540842
b11 +
1%
#51582508
0%
#51624174
b1111110000000000000000 *
b1110 )
1"
b0 +
1%
#51665840
0%
#51707506
b1 +
1%
#51749172
0%
#51790838
b10 +
1%
#51832504
0%
#51874170
b11 +
1%
#51915836
0%
#51957502
0"
b0 +
1%
#51999168
0%
